module natuurcentrum_backend_v2

go 1.20

require (
	github.com/gin-gonic/gin v1.7.7
	go.mongodb.org/mongo-driver v1.11.4
)

require (
	github.com/gin-contrib/sse v0.1.0 // indirect
	github.com/go-playground/locales v0.14.1 // indirect
	github.com/go-playground/universal-translator v0.18.1 // indirect
	github.com/go-playground/validator/v10 v10.12.0 // indirect
	github.com/golang/protobuf v1.5.0 // indirect
	github.com/golang/snappy v0.0.4 // indirect
	github.com/joho/godotenv v1.5.1
	github.com/json-iterator/go v1.1.12 // indirect
	github.com/klauspost/compress v1.16.4 // indirect
	github.com/leodido/go-urn v1.2.3 // indirect
	github.com/mattn/go-isatty v0.0.18 // indirect
	github.com/modern-go/concurrent v0.0.0-20180306012644-bacd9c7ef1dd // indirect
	github.com/modern-go/reflect2 v1.0.2 // indirect
	github.com/montanaflynn/stats v0.0.0-20171201202039-1bf9dbcd8cbe // indirect
	github.com/pkg/errors v0.9.1 // indirect
	github.com/ugorji/go/codec v1.2.11 // indirect
	github.com/xdg-go/pbkdf2 v1.0.0 // indirect
	github.com/xdg-go/scram v1.1.1 // indirect
	github.com/xdg-go/stringprep v1.0.3 // indirect
	github.com/youmark/pkcs8 v0.0.0-20201027041543-1326539a0a0a // indirect
	golang.org/x/crypto v0.7.0 // indirect
	golang.org/x/sync v0.0.0-20210220032951-036812b2e83c // indirect
	golang.org/x/sys v0.7.0 // indirect
	golang.org/x/text v0.8.0 // indirect
	google.golang.org/protobuf v1.30.0 // indirect
	gopkg.in/yaml.v2 v2.2.8 // indirect
)
